digraph "Menu.cpp"
{
 // LATEX_PDF_SIZE
  edge [fontname="Helvetica",fontsize="10",labelfontname="Helvetica",labelfontsize="10"];
  node [fontname="Helvetica",fontsize="10",shape=record];
  Node1 [label="Menu.cpp",height=0.2,width=0.4,color="black", fillcolor="grey75", style="filled", fontcolor="black",tooltip=" "];
  Node1 -> Node2 [color="midnightblue",fontsize="10",style="solid",fontname="Helvetica"];
  Node2 [label="Menu.h",height=0.2,width=0.4,color="black", fillcolor="white", style="filled",URL="$_menu_8h.html",tooltip=" "];
  Node2 -> Node3 [color="midnightblue",fontsize="10",style="solid",fontname="Helvetica"];
  Node3 [label="RobotInterface.h",height=0.2,width=0.4,color="black", fillcolor="white", style="filled",URL="$_robot_interface_8h.html",tooltip=" "];
  Node3 -> Node4 [color="midnightblue",fontsize="10",style="solid",fontname="Helvetica"];
  Node4 [label="Position.h",height=0.2,width=0.4,color="black", fillcolor="white", style="filled",URL="$_position_8h.html",tooltip=" "];
  Node3 -> Node5 [color="midnightblue",fontsize="10",style="solid",fontname="Helvetica"];
  Node5 [label="RangeSensor.h",height=0.2,width=0.4,color="black", fillcolor="white", style="filled",URL="$_range_sensor_8h.html",tooltip=" "];
  Node5 -> Node6 [color="midnightblue",fontsize="10",style="solid",fontname="Helvetica"];
  Node6 [label="string",height=0.2,width=0.4,color="grey75", fillcolor="white", style="filled",tooltip=" "];
  Node2 -> Node7 [color="midnightblue",fontsize="10",style="solid",fontname="Helvetica"];
  Node7 [label="RobotControl.h",height=0.2,width=0.4,color="black", fillcolor="white", style="filled",URL="$_robot_control_8h.html",tooltip=" "];
  Node7 -> Node3 [color="midnightblue",fontsize="10",style="solid",fontname="Helvetica"];
  Node7 -> Node5 [color="midnightblue",fontsize="10",style="solid",fontname="Helvetica"];
  Node7 -> Node8 [color="midnightblue",fontsize="10",style="solid",fontname="Helvetica"];
  Node8 [label="SonarSensor.h",height=0.2,width=0.4,color="black", fillcolor="white", style="filled",URL="$_sonar_sensor_8h.html",tooltip=" "];
  Node8 -> Node5 [color="midnightblue",fontsize="10",style="solid",fontname="Helvetica"];
  Node7 -> Node4 [color="midnightblue",fontsize="10",style="solid",fontname="Helvetica"];
  Node7 -> Node9 [color="midnightblue",fontsize="10",style="solid",fontname="Helvetica"];
  Node9 [label="PioneerRobotInterface.h",height=0.2,width=0.4,color="black", fillcolor="white", style="filled",URL="$_pioneer_robot_interface_8h.html",tooltip=" "];
  Node9 -> Node3 [color="midnightblue",fontsize="10",style="solid",fontname="Helvetica"];
  Node9 -> Node10 [color="midnightblue",fontsize="10",style="solid",fontname="Helvetica"];
  Node10 [label="PioneerRobotAPI.h",height=0.2,width=0.4,color="black", fillcolor="white", style="filled",URL="$_pioneer_robot_a_p_i_8h.html",tooltip=" "];
  Node10 -> Node11 [color="midnightblue",fontsize="10",style="solid",fontname="Helvetica"];
  Node11 [label="Aria/Aria.h",height=0.2,width=0.4,color="grey75", fillcolor="white", style="filled",tooltip=" "];
  Node10 -> Node12 [color="midnightblue",fontsize="10",style="solid",fontname="Helvetica"];
  Node12 [label="iostream",height=0.2,width=0.4,color="grey75", fillcolor="white", style="filled",tooltip=" "];
  Node9 -> Node8 [color="midnightblue",fontsize="10",style="solid",fontname="Helvetica"];
  Node7 -> Node13 [color="midnightblue",fontsize="10",style="solid",fontname="Helvetica"];
  Node13 [label="vector",height=0.2,width=0.4,color="grey75", fillcolor="white", style="filled",tooltip=" "];
  Node7 -> Node14 [color="midnightblue",fontsize="10",style="solid",fontname="Helvetica"];
  Node14 [label="math.h",height=0.2,width=0.4,color="grey75", fillcolor="white", style="filled",tooltip=" "];
  Node2 -> Node12 [color="midnightblue",fontsize="10",style="solid",fontname="Helvetica"];
}
