digraph "RobotInterface.h"
{
 // LATEX_PDF_SIZE
  edge [fontname="Helvetica",fontsize="10",labelfontname="Helvetica",labelfontsize="10"];
  node [fontname="Helvetica",fontsize="10",shape=record];
  Node1 [label="RobotInterface.h",height=0.2,width=0.4,color="black", fillcolor="grey75", style="filled", fontcolor="black",tooltip=" "];
  Node1 -> Node2 [color="midnightblue",fontsize="10",style="solid",fontname="Helvetica"];
  Node2 [label="Position.h",height=0.2,width=0.4,color="black", fillcolor="white", style="filled",URL="$_position_8h.html",tooltip=" "];
  Node1 -> Node3 [color="midnightblue",fontsize="10",style="solid",fontname="Helvetica"];
  Node3 [label="RangeSensor.h",height=0.2,width=0.4,color="black", fillcolor="white", style="filled",URL="$_range_sensor_8h.html",tooltip=" "];
  Node3 -> Node4 [color="midnightblue",fontsize="10",style="solid",fontname="Helvetica"];
  Node4 [label="string",height=0.2,width=0.4,color="grey75", fillcolor="white", style="filled",tooltip=" "];
}
